<svg xmlns="http://www.w3.org/2000/svg" xmlns:xlink="http://www.w3.org/1999/xlink" version="1.1" id="Layer_1" x="0px" y="0px" width="50px" height="50px" viewBox="0 0 50 50" enable-background="new 0 0 50 50" xml:space="preserve">
<g>
	<path fill="#000000" d="M40.765,15.791v-0.02H9.605v4.155h-9.13v5.074h9.13v0.252h-9.13v5.075h9.13v3.9h31.159   c0,0,8.351-0.934,8.76-9.327C49.524,20.066,45.658,16.118,40.765,15.791z M6.21,23.427H4.393v-1.915H6.21V23.427z M6.21,28.559   H4.393v-1.912H6.21V28.559z M37.694,26.557v-1.313H27.399l1.99,2.352c0,0,0.825,1.09,1.953,0.938   c0.342-0.011,1.117-0.008,1.577-0.005v-0.791h2.673v2.954H32.92v-1.114h-1.982c-1.306-0.07-1.899-0.922-1.899-0.922l-3.121-3.412   h-5.056c-0.188,1.197-1.177,2.107-2.367,2.107c-1.327,0-2.407-1.131-2.407-2.524c0-1.393,1.08-2.523,2.407-2.523   c1.123,0,2.063,0.81,2.326,1.907h1.731l3.174-3.473c0,0,0.592-0.85,1.9-0.92h2.051c0.184-0.646,0.698-1.115,1.304-1.115   c0.758,0,1.369,0.731,1.369,1.631c0,0.898-0.611,1.629-1.369,1.629c-0.601,0-1.114-0.46-1.298-1.098   c-0.446,0.002-1.293,0.008-1.653-0.003c-1.128-0.154-1.952,0.938-1.952,0.938l-2.04,2.41h13.657v-1.192l2.56,1.709L37.694,26.557z"/>
</g>
</svg>