<svg width="26" height="16" viewBox="0 0 26 16" fill="none" xmlns="http://www.w3.org/2000/svg">
<path d="M21.3997 4.59941C16.6997 -0.500586 9.19971 -0.500586 4.49971 4.59941L1.39971 7.99941L4.59971 11.4994C6.89971 13.9994 9.99971 15.2994 12.9997 15.2994C16.0997 15.2994 19.0997 13.9994 21.3997 11.4994L24.4997 8.09941L21.3997 4.59941ZM20.8997 10.7994C16.5997 15.4994 9.49971 15.4994 5.09971 10.7994L2.49971 7.99941L5.09971 5.19941C9.39971 0.499413 16.4997 0.499413 20.8997 5.19941L23.4997 8.09941L20.8997 10.7994Z" fill="white"/>
<path fill-rule="evenodd" clip-rule="evenodd" d="M4.13203 4.26057C9.03006 -1.05431 16.8694 -1.05431 21.7674 4.26057L21.7741 4.26783L25.1719 8.10426L21.7692 11.8363L21.7677 11.8379C19.3765 14.437 16.2447 15.7994 12.9997 15.7994C9.85705 15.7994 6.62449 14.4388 4.23175 11.8379L4.2307 11.8368L0.722656 7.99988L4.13203 4.26057ZM20.5311 5.53726C16.3261 1.04972 9.56697 1.05732 5.46861 5.53692L5.46612 5.53965L3.18203 7.99941L5.46472 10.4577V10.4577C9.66949 14.9484 16.4315 14.9425 20.5308 10.4619L20.5394 10.4525L22.8173 8.08726L20.5311 5.53726Z" fill="white"/>
<path d="M12.5995 5.19902C11.1995 5.19902 10.0995 6.29902 10.0995 7.69902C10.0995 7.89902 10.2995 8.09902 10.4995 8.09902C10.6995 8.09902 10.8995 7.89902 10.8995 7.69902C10.8995 6.69902 11.6995 5.89902 12.6995 5.89902C12.8995 5.89902 13.0995 5.69902 13.0995 5.49902C12.9995 5.29902 12.7995 5.19902 12.5995 5.19902Z" fill="white"/>
<path fill-rule="evenodd" clip-rule="evenodd" d="M9.59951 7.69902C9.59951 6.02288 10.9234 4.69902 12.5995 4.69902C12.9612 4.69902 13.3503 4.88257 13.5467 5.27542L13.5995 5.38099V5.49902C13.5995 5.76164 13.4732 5.98241 13.3281 6.12758C13.1829 6.27275 12.9621 6.39902 12.6995 6.39902C11.9757 6.39902 11.3995 6.97517 11.3995 7.69902C11.3995 7.96164 11.2732 8.1824 11.1281 8.32758C10.9829 8.47275 10.7621 8.59902 10.4995 8.59902C10.2369 8.59902 10.0161 8.47275 9.87096 8.32758C9.72579 8.1824 9.59951 7.96164 9.59951 7.69902Z" fill="white"/>
<path d="M12.9995 3.39902C10.4995 3.39902 8.39951 5.49902 8.39951 7.99902C8.39951 10.499 10.4995 12.599 12.9995 12.599C15.4995 12.599 17.5995 10.499 17.5995 7.99902C17.5995 5.49902 15.4995 3.39902 12.9995 3.39902ZM12.9995 11.899C10.8995 11.899 9.09951 10.199 9.09951 7.99902C9.09951 5.89902 10.7995 4.09902 12.9995 4.09902C15.0995 4.09902 16.8995 5.79902 16.8995 7.99902C16.8995 10.099 15.0995 11.899 12.9995 11.899Z" fill="white"/>
<path fill-rule="evenodd" clip-rule="evenodd" d="M7.89951 7.99902C7.89951 5.22288 10.2234 2.89902 12.9995 2.89902C15.7757 2.89902 18.0995 5.22288 18.0995 7.99902C18.0995 10.7752 15.7757 13.099 12.9995 13.099C10.2234 13.099 7.89951 10.7752 7.89951 7.99902ZM12.9995 4.59902C11.084 4.59902 9.59951 6.16679 9.59951 7.99902C9.59951 9.91458 11.1673 11.399 12.9995 11.399C14.8234 11.399 16.3995 9.82288 16.3995 7.99902C16.3995 6.08347 14.8317 4.59902 12.9995 4.59902Z" fill="white"/>
</svg>
