<svg xmlns="http://www.w3.org/2000/svg" xmlns:xlink="http://www.w3.org/1999/xlink" version="1.0" id="Layer_1" x="0px" y="0px" width="50px" height="50px" viewBox="0 0 50 50" enable-background="new 0 0 50 50" xml:space="preserve">
<g>
	<g>
		<polygon fill="#000000" points="12,24.301 21.969,30.057 12,35.812   "/>
		<path fill="#000000" d="M1,17v26h31V17H1z M27,41H6V20h21V41z"/>
	</g>
	<g>
		<polygon fill="#000000" points="40,12 10,12 10,19 15,19 15,15 35,15 35,35 30,35 30,37 40,37   "/>
	</g>
	<g>
		<polygon fill="#000000" points="49,8 20,8 20,14 24,14 24,10 44,10 44,29 38,29 38,31 49,31   "/>
	</g>
</g>
</svg>