<svg width="20" height="17" viewBox="0 0 20 17" fill="none" xmlns="http://www.w3.org/2000/svg">
<path d="M5.08355 0.781452C5.51944 1.65252 6.47519 3.83557 6.59916 4.05423C6.67644 4.16969 6.72055 4.30055 6.72753 4.43506C6.73451 4.56957 6.70414 4.70353 6.63915 4.82492C6.51492 5.08955 6.3493 5.33699 6.14727 5.55978C5.90334 5.81787 5.63141 6.13332 5.40747 6.33047C5.18352 6.52763 4.90759 6.78214 5.19952 7.2338C5.93794 8.36739 6.85972 9.39661 7.93481 10.2879C9.10136 11.2182 10.4397 11.9593 11.8898 12.4781C12.3817 12.6968 12.6696 12.6609 12.9575 12.367C13.2454 12.0731 14.1852 11.0801 14.5131 10.6392C14.841 10.1983 15.169 10.2807 15.6208 10.417C16.0727 10.5532 18.4921 11.6322 18.984 11.8508C19.4758 12.0695 19.8038 12.1806 19.9277 12.367C20.0517 12.5534 20.0517 13.4424 19.6398 14.464C19.2279 15.4856 17.2404 16.4858 16.3207 16.561C15.4009 16.6363 14.5691 16.9123 10.3982 15.4426C5.41146 13.6862 2.25628 9.08348 2.00034 8.78954C1.74441 8.4956 0.000858403 6.39858 0.000858403 4.22987C-0.01266 3.54314 0.133622 2.86142 0.430377 2.22819C0.727132 1.59495 1.16785 1.0241 1.72441 0.552035C1.88874 0.38389 2.0901 0.248044 2.31583 0.15304C2.54157 0.0580366 2.78679 0.00593087 3.03608 0C3.36399 0 3.69191 0 3.97983 0C4.33174 0 4.71964 0.0286775 5.08755 0.763529" fill="white"/>
</svg>
